lu373029e02/verilator/dump.vcd
$version Generated by VerilatedVcd $end
$timescale 1ps $end
 $scope module top $end
  $scope module $unit $end
   $var wire 32 8 X_I [31:0] $end
   $var wire 32 9 X_F [31:0] $end
   $var wire 32 : X_W [31:0] $end
   $var wire 32 ; Y_I [31:0] $end
   $var wire 32 9 Y_F [31:0] $end
   $var wire 32 < Y_W [31:0] $end
   $var wire 32 8 X1_I [31:0] $end
   $var wire 32 = X1_F [31:0] $end
   $var wire 32 > X1_W [31:0] $end
   $var wire 32 ? X2_I [31:0] $end
   $var wire 32 @ X2_J [31:0] $end
   $var wire 32 A X2_F [31:0] $end
   $var wire 32 A X2_W [31:0] $end
   $var wire 32 ? X2X2_I [31:0] $end
   $var wire 32 B X2X2_F [31:0] $end
   $var wire 32 B X2X2_W [31:0] $end
   $var wire 32 ; A_I [31:0] $end
   $var wire 32 C A_F [31:0] $end
   $var wire 32 D A_W [31:0] $end
   $var wire 32 ; B_I [31:0] $end
   $var wire 32 E B_F [31:0] $end
   $var wire 32 F B_W [31:0] $end
   $var wire 32 ; C_I [31:0] $end
   $var wire 32 G C_F [31:0] $end
   $var wire 32 C C_W [31:0] $end
   $var wire 32 ; T0_I [31:0] $end
   $var wire 32 9 T0_F [31:0] $end
   $var wire 32 < T0_W [31:0] $end
   $var wire 32 ; T1_I [31:0] $end
   $var wire 32 H T1_F [31:0] $end
   $var wire 32 I T1_W [31:0] $end
   $var wire 32 ; T2_I [31:0] $end
   $var wire 32 B T2_F [31:0] $end
   $var wire 32 J T2_W [31:0] $end
   $var wire 32 ; Y_SUM_I [31:0] $end
   $var wire 32 9 Y_SUM_F [31:0] $end
   $var wire 32 < Y_SUM_W [31:0] $end
  $upscope $end
  $var wire 1 2 clk $end
  $var wire 1 3 rst_b $end
  $var wire 24 4 x [23:0] $end
  $var wire 1 5 x_dv $end
  $var wire 25 6 y [24:0] $end
  $var wire 1 7 y_dv $end
  $scope module quadra_top $end
   $var wire 1 2 clk $end
   $var wire 1 3 rst_b $end
   $var wire 24 4 x [23:0] $end
   $var wire 1 5 x_dv $end
   $var wire 25 6 y [24:0] $end
   $var wire 1 7 y_dv $end
   $var wire 1 / dv_p0 $end
   $var wire 1 0 dv_p1 $end
   $var wire 1 1 dv_p2 $end
   $var wire 7 # x1 [6:0] $end
   $var wire 17 $ x2 [-1:-17] $end
   $var wire 25 6 y_quadra [24:0] $end
   $scope module quadra_inst $end
    $var wire 1 2 clk $end
    $var wire 1 3 rst $end
    $var wire 7 # x1 [6:0] $end
    $var wire 17 $ x2 [-1:-17] $end
    $var wire 25 6 y_fxd [24:0] $end
    $var wire 34 % sq_out [-1:-34] $end
    $var wire 30 ' t1 [1:-28] $end
    $var wire 36 ( t2 [1:-34] $end
    $var wire 25 * t0 [1:-23] $end
    $var wire 14 + a [1:-12] $end
    $var wire 13 , b [1:-11] $end
    $var wire 12 - c [1:-10] $end
    $var wire 26 . y_sum [2:-23] $end
    $scope module lut_coeff $end
     $var wire 7 # x1 [6:0] $end
     $var wire 14 + a [1:-12] $end
     $var wire 13 , b [1:-11] $end
     $var wire 12 - c [1:-10] $end
    $upscope $end
    $scope module s1 $end
     $var wire 17 $ x2 [-1:-17] $end
     $var wire 34 % sq [-1:-34] $end
    $upscope $end
   $upscope $end
  $upscope $end
 $upscope $end
$enddefinitions $end


#500
b1010011 #
b00001011100100001 $
b0000000010000101101111001001000001 %
b001010100110100111110111100001 '
b101011011111100011001010111111000101 (
b0010100111111001110000010 *
b00111101111111 +
b1110000111100 ,
b111000011110 -
b10111110011010101101010110 .
0/
00
11
02
13
b000000000000000000000000 4
05
b0111110011010101101010110 6
17
b00000000000000000000000000000001 8
b00000000000000000000000000010111 9
b00000000000000000000000000011000 :
b00000000000000000000000000000010 ;
b00000000000000000000000000011001 <
b00000000000000000000000000000110 =
b00000000000000000000000000000111 >
b00000000000000000000000000000000 ?
b11111111111111111111111111111010 @
b00000000000000000000000000010001 A
b00000000000000000000000000100010 B
b00000000000000000000000000001100 C
b00000000000000000000000000001110 D
b00000000000000000000000000001011 E
b00000000000000000000000000001101 F
b00000000000000000000000000001010 G
b00000000000000000000000000011100 H
b00000000000000000000000000011110 I
b00000000000000000000000000100100 J
#1000
b0000000 #
b00000000000000000 $
b0000000000000000000000000000000000 %
b000010100011010000011110111100 '
b000000000111010111111111010000001000 (
b0000000000000111101111111 *
b11010010110000 +
b0101101010000 ,
b010110101000 -
b10000001001011100100000110 .
01
12
b0000001001011100100000110 6
07
#1500
02
03
#2000
b000000000000000000000000000000 '
b000000000000000000000000000000000000 (
b1111111111111010010110000 *
b00000101010110001110111010 .
12
b0000101010110001110111010 6
#2500
02
13
#3000
b01111111111111010010110000 .
12
b1111111111111010010110000 6
#3500
02
#4000
12
#4500
02
#5000
12
#5500
02
#6000
12
#6500
02
#7000
12
#7500
02
#8000
12
#8500
02
#9000
12
#9500
02
#10000
12
#10500
02
#11000
12
#11500
02
#12000
12
#12500
02
#13000
12
#13500
02
#14000
12
#14500
02
#15000
12
#15500
02
b111111111111111111110000 4
15
#16000
b1111111 #
b11111111111110000 $
b1111111111110000000000000100000000 %
b11111101010101 +
b1000000000100 ,
b100000000010 -
1/
12
#16500
02
b111111111111111111110001 4
#17000
b11111111111110001 $
b1111111111110001000000000011100001 %
b100000000001101111111111000000 '
b100000000001011111111110000000000000 (
b1111111111111111101010101 *
10
12
#17500
02
b111111111111111111110010 4
#18000
b11111111111110010 $
b1111111111110010000000000011000100 %
b100000000001110000111111000100 '
b100000000001100001111110001000000000 (
b00000000000110011101001111 .
11
12
b0000000000110011101001111 6
17
#18500
02
b111111111111111111110011 4
#19000
b11111111111110011 $
b1111111111110011000000000010101001 %
b100000000001110001111111001000 '
b100000000001100011111110010000000000 (
b00000000000110100011001111 .
12
b0000000000110100011001111 6
#19500
02
b111111111111111111110100 4
#20000
b11111111111110100 $
b1111111111110100000000000010010000 %
b100000000001110010111111001100 '
b100000000001100101111110011000000000 (
b00000000000110101001001111 .
12
b0000000000110101001001111 6
#20500
02
b111111111111111111110101 4
#21000
b11111111111110101 $
b1111111111110101000000000001111001 %
b100000000001110011111111010000 '
b100000000001100111111110100000000000 (
b00000000000110101111001111 .
12
b0000000000110101111001111 6
#21500
02
b111111111111111111110110 4
#22000
b11111111111110110 $
b1111111111110110000000000001100100 %
b100000000001110100111111010100 '
b100000000001101001111110101000000000 (
b00000000000110110101010000 .
12
b0000000000110110101010000 6
#22500
02
b111111111111111111110111 4
#23000
b11111111111110111 $
b1111111111110111000000000001010001 %
b100000000001110101111111011000 '
b100000000001101011111110110000000000 (
b00000000000110111011010000 .
12
b0000000000110111011010000 6
#23500
02
b111111111111111111111000 4
#24000
b11111111111111000 $
b1111111111111000000000000001000000 %
b100000000001110110111111011100 '
b100000000001101101111110111000000000 (
b00000000000111000001010000 .
12
b0000000000111000001010000 6
#24500
02
b111111111111111111111001 4
#25000
b11111111111111001 $
b1111111111111001000000000000110001 %
b100000000001110111111111100000 '
b100000000001101111111111000000000000 (
b00000000000111000111010000 .
12
b0000000000111000111010000 6
#25500
02
b111111111111111111111010 4
#26000
b11111111111111010 $
b1111111111111010000000000000100100 %
b100000000001111000111111100100 '
b100000000001110001111111001000000000 (
b00000000000111001101010010 .
12
b0000000000111001101010010 6
#26500
02
b111111111111111111111011 4
#27000
b11111111111111011 $
b1111111111111011000000000000011001 %
b100000000001111001111111101000 '
b100000000001110011111111010000000000 (
b00000000000111010011010010 .
12
b0000000000111010011010010 6
#27500
02
b111111111111111111111100 4
#28000
b11111111111111100 $
b1111111111111100000000000000010000 %
b100000000001111010111111101100 '
b100000000001110101111111011000000000 (
b00000000000111011001010010 .
12
b0000000000111011001010010 6
#28500
02
b111111111111111111111101 4
#29000
b11111111111111101 $
b1111111111111101000000000000001001 %
b100000000001111011111111110000 '
b100000000001110111111111100000000000 (
b00000000000111011111010010 .
12
b0000000000111011111010010 6
#29500
02
b111111111111111111111110 4
#30000
b11111111111111110 $
b1111111111111110000000000000000100 %
b100000000001111100111111110100 '
b100000000001111001111111101000000000 (
b00000000000111100101010011 .
12
b0000000000111100101010011 6
#30500
02
b111111111111111111111111 4
#31000
b11111111111111111 $
b1111111111111111000000000000000001 %
b100000000001111101111111111000 '
b100000000001111011111111110000000000 (
b00000000000111101011010011 .
12
b0000000000111101011010011 6
#31500
02
b000000000000000000000000 4
05
#32000
b0000000 #
b00000000000000000 $
b0000000000000000000000000000000000 %
b100000000001111110111111111100 '
b100000000001111101111111111000000000 (
b11010010110000 +
b0101101010000 ,
b010110101000 -
b00000000000111110001010011 .
0/
12
b0000000000111110001010011 6
#32500
02
#33000
b000000000000000000000000000000 '
b000000000000000000000000000000000000 (
b1111111111111010010110000 *
b00000000000111110111010011 .
00
12
b0000000000111110111010011 6
#33500
02
#34000
b01111111111111010010110000 .
01
12
b1111111111111010010110000 6
07
