lu373029e02/verilator/dump.vcd
$version Generated by VerilatedVcd $end
$timescale 1ps $end
 $scope module top $end
  $scope module $unit $end
   $var wire 32 8 X_I [31:0] $end
   $var wire 32 9 X_F [31:0] $end
   $var wire 32 : X_W [31:0] $end
   $var wire 32 ; Y_I [31:0] $end
   $var wire 32 9 Y_F [31:0] $end
   $var wire 32 < Y_W [31:0] $end
   $var wire 32 8 X1_I [31:0] $end
   $var wire 32 = X1_F [31:0] $end
   $var wire 32 > X1_W [31:0] $end
   $var wire 32 ? X2_I [31:0] $end
   $var wire 32 @ X2_J [31:0] $end
   $var wire 32 A X2_F [31:0] $end
   $var wire 32 A X2_W [31:0] $end
   $var wire 32 ? X2X2_I [31:0] $end
   $var wire 32 B X2X2_F [31:0] $end
   $var wire 32 B X2X2_W [31:0] $end
   $var wire 32 C A_I [31:0] $end
   $var wire 32 : A_F [31:0] $end
   $var wire 32 D A_W [31:0] $end
   $var wire 32 C B_I [31:0] $end
   $var wire 32 E B_F [31:0] $end
   $var wire 32 F B_W [31:0] $end
   $var wire 32 C C_I [31:0] $end
   $var wire 32 G C_F [31:0] $end
   $var wire 32 H C_W [31:0] $end
   $var wire 32 C T0_I [31:0] $end
   $var wire 32 : T0_F [31:0] $end
   $var wire 32 D T0_W [31:0] $end
   $var wire 32 C T1_I [31:0] $end
   $var wire 32 I T1_F [31:0] $end
   $var wire 32 J T1_W [31:0] $end
   $var wire 32 C T2_I [31:0] $end
   $var wire 32 B T2_F [31:0] $end
   $var wire 32 K T2_W [31:0] $end
   $var wire 32 C Y_SUM_I [31:0] $end
   $var wire 32 : Y_SUM_F [31:0] $end
   $var wire 32 D Y_SUM_W [31:0] $end
  $upscope $end
  $var wire 1 2 clk $end
  $var wire 1 3 rst_b $end
  $var wire 24 4 x [23:0] $end
  $var wire 1 5 x_dv $end
  $var wire 25 6 y [24:0] $end
  $var wire 1 7 y_dv $end
  $scope module quadra_top $end
   $var wire 1 2 clk $end
   $var wire 1 3 rst_b $end
   $var wire 24 4 x [23:0] $end
   $var wire 1 5 x_dv $end
   $var wire 25 6 y [24:0] $end
   $var wire 1 7 y_dv $end
   $var wire 1 / dv_p0 $end
   $var wire 1 0 dv_p1 $end
   $var wire 1 1 dv_p2 $end
   $var wire 7 # x1 [6:0] $end
   $var wire 17 $ x2 [-1:-17] $end
   $var wire 25 6 y_quadra [24:0] $end
   $scope module quadra_inst $end
    $var wire 1 2 clk $end
    $var wire 1 3 rst $end
    $var wire 7 # x1 [6:0] $end
    $var wire 17 $ x2 [-1:-17] $end
    $var wire 25 6 y_fxd [24:0] $end
    $var wire 34 % sq_out [-1:-34] $end
    $var wire 31 ' t1 [2:-28] $end
    $var wire 37 ( t2 [2:-34] $end
    $var wire 27 * t0 [2:-24] $end
    $var wire 27 + a [2:-24] $end
    $var wire 14 , b [2:-11] $end
    $var wire 13 - c [2:-10] $end
    $var wire 28 . y_sum [3:-24] $end
    $scope module lut_coeff $end
     $var wire 7 # x1 [6:0] $end
     $var wire 27 + a [2:-24] $end
     $var wire 14 , b [2:-11] $end
     $var wire 13 - c [2:-10] $end
    $upscope $end
    $scope module s1 $end
     $var wire 17 $ x2 [-1:-17] $end
     $var wire 34 % sq [-1:-34] $end
    $upscope $end
   $upscope $end
  $upscope $end
 $upscope $end
$enddefinitions $end


#500
b1010011 #
b00001011100100001 $
b0000000010000101101111001001000001 %
b0001010100110100111110111100001 '
b0101011011111100011001010111111000101 (
b010010100111111001110000010 *
b000111110001100111101111111 +
b11110000111100 ,
b1111000011110 -
b0010111110011010101101010110 .
0/
00
11
02
13
b000000000000000000000000 4
05
b0111110011010101101010110 6
17
b00000000000000000000000000000001 8
b00000000000000000000000000010111 9
b00000000000000000000000000011000 :
b00000000000000000000000000000010 ;
b00000000000000000000000000011001 <
b00000000000000000000000000000110 =
b00000000000000000000000000000111 >
b00000000000000000000000000000000 ?
b11111111111111111111111111111010 @
b00000000000000000000000000010001 A
b00000000000000000000000000100010 B
b00000000000000000000000000000011 C
b00000000000000000000000000011011 D
b00000000000000000000000000001011 E
b00000000000000000000000000001110 F
b00000000000000000000000000001010 G
b00000000000000000000000000001101 H
b00000000000000000000000000011100 I
b00000000000000000000000000011111 J
b00000000000000000000000000100101 K
#1000
b0000000 #
b00000000000000000 $
b0000000000000000000000000000000000 %
b0000101011100010010011110111100 '
b0000000000111110111011101101000000100 (
b000111110001100111101111111 *
b111010010101111101100001101 +
b00101101010000 ,
b0010110101000 -
b1001000101110000100110010101 .
01
12
b1000101110000100110010101 6
07
#1500
02
03
#2000
b0000000000000000000000000000000 '
b0000000000000000000000000000000000000 (
b111010010101111101100001101 *
b0001101010101110001101100011 .
12
b1101010101110001101100011 6
#2500
02
13
#3000
b0111010010101111101100001101 .
12
b1010010101111101100001101 6
#3500
02
#4000
12
#4500
02
#5000
12
#5500
02
#6000
12
#6500
02
#7000
12
#7500
02
#8000
12
#8500
02
#9000
12
#9500
02
#10000
12
#10500
02
#11000
12
#11500
02
#12000
12
#12500
02
#13000
12
#13500
02
#14000
12
#14500
02
#15000
12
#15500
02
b111111111111111111110000 4
15
#16000
b1111111 #
b11111111111110000 $
b1111111111110000000000000100000000 %
b111111101010101000000010001 +
b11000000000100 ,
b1100000000010 -
1/
12
#16500
02
b111111111111111111110001 4
#17000
b11111111111110001 $
b1111111111110001000000000011100001 %
b1100000000001001111111111000000 '
b0110000000000001111111111000000000000 (
b111111101010101000000010001 *
10
12
#17500
02
b111111111111111111110010 4
#18000
b11111111111110010 $
b1111111111110010000000000011000100 %
b1100000000001010010111111000100 '
b0110000000000010010111111000100000000 (
b1001111101100001000000000001 .
11
12
b1111101100001000000000001 6
17
#18500
02
b111111111111111111110011 4
#19000
b11111111111110011 $
b1111111111110011000000000010101001 %
b1100000000001010101111111001000 '
b0110000000000010101111111001000000000 (
b1001111101100001110000000001 .
12
b1111101100001110000000001 6
#19500
02
b111111111111111111110100 4
#20000
b11111111111110100 $
b1111111111110100000000000010010000 %
b1100000000001011000111111001100 '
b0110000000000011000111111001100000000 (
b1001111101100010100000000011 .
12
b1111101100010100000000011 6
#20500
02
b111111111111111111110101 4
#21000
b11111111111110101 $
b1111111111110101000000000001111001 %
b1100000000001011011111111010000 '
b0110000000000011011111111010000000000 (
b1001111101100011010000000011 .
12
b1111101100011010000000011 6
#21500
02
b111111111111111111110110 4
#22000
b11111111111110110 $
b1111111111110110000000000001100100 %
b1100000000001011110111111010100 '
b0110000000000011110111111010100000000 (
b1001111101100100000000000101 .
12
b1111101100100000000000101 6
#22500
02
b111111111111111111110111 4
#23000
b11111111111110111 $
b1111111111110111000000000001010001 %
b1100000000001100001111111011000 '
b0110000000000100001111111011000000000 (
b1001111101100100110000000101 .
12
b1111101100100110000000101 6
#23500
02
b111111111111111111111000 4
#24000
b11111111111111000 $
b1111111111111000000000000001000000 %
b1100000000001100100111111011100 '
b0110000000000100100111111011100000000 (
b1001111101100101100000000111 .
12
b1111101100101100000000111 6
#24500
02
b111111111111111111111001 4
#25000
b11111111111111001 $
b1111111111111001000000000000110001 %
b1100000000001100111111111100000 '
b0110000000000100111111111100000000000 (
b1001111101100110010000000111 .
12
b1111101100110010000000111 6
#25500
02
b111111111111111111111010 4
#26000
b11111111111111010 $
b1111111111111010000000000000100100 %
b1100000000001101010111111100100 '
b0110000000000101010111111100100000000 (
b1001111101100111000000001001 .
12
b1111101100111000000001001 6
#26500
02
b111111111111111111111011 4
#27000
b11111111111111011 $
b1111111111111011000000000000011001 %
b1100000000001101101111111101000 '
b0110000000000101101111111101000000000 (
b1001111101100111110000001001 .
12
b1111101100111110000001001 6
#27500
02
b111111111111111111111100 4
#28000
b11111111111111100 $
b1111111111111100000000000000010000 %
b1100000000001110000111111101100 '
b0110000000000110000111111101100000000 (
b1001111101101000100000001011 .
12
b1111101101000100000001011 6
#28500
02
b111111111111111111111101 4
#29000
b11111111111111101 $
b1111111111111101000000000000001001 %
b1100000000001110011111111110000 '
b0110000000000110011111111110000000000 (
b1001111101101001010000001011 .
12
b1111101101001010000001011 6
#29500
02
b111111111111111111111110 4
#30000
b11111111111111110 $
b1111111111111110000000000000000100 %
b1100000000001110110111111110100 '
b0110000000000110110111111110100000000 (
b1001111101101010000000001101 .
12
b1111101101010000000001101 6
#30500
02
b111111111111111111111111 4
#31000
b11111111111111111 $
b1111111111111111000000000000000001 %
b1100000000001111001111111111000 '
b0110000000000111001111111111000000000 (
b1001111101101010110000001101 .
12
b1111101101010110000001101 6
#31500
02
b000000000000000000000000 4
05
#32000
b0000000 #
b00000000000000000 $
b0000000000000000000000000000000000 %
b1100000000001111100111111111100 '
b0110000000000111100111111111100000000 (
b111010010101111101100001101 +
b00101101010000 ,
b0010110101000 -
b1001111101101011100000001111 .
0/
12
b1111101101011100000001111 6
#32500
02
#33000
b0000000000000000000000000000000 '
b0000000000000000000000000000000000000 (
b111010010101111101100001101 *
b1001111101101100010000001111 .
00
12
b1111101101100010000001111 6
#33500
02
#34000
b0111010010101111101100001101 .
01
12
b1010010101111101100001101 6
07
